1431660064.72 0 42.756061554 16.3488845825 0.696295678616 0.266246646643
1431660064.74 0 57.0588798523 21.803560257 1.39327991009 0.532055437565
1431660064.76 0 64.2566223145 24.5378303528 2.08852887154 0.796161592007
1431660064.77 0 68.6348190308 26.1837902069 2.78466534615 1.0578417778
1431660064.79 0 71.5958862305 27.2898101807 3.47902083397 1.31712925434
1431660064.81 0 73.7629089355 28.086894989 4.17287540436 1.57214653492
1431660064.82 0 75.4276733398 28.6938743591 4.86067914963 1.82256829739
1431660064.84 0 76.7606201172 29.1750793457 5.54000520706 2.06721615791
1431660064.85 0 77.8642044067 29.5691261292 6.20876550674 2.30505228043
1431660064.87 0 78.8029708862 29.9003181458 6.86428165436 2.53486394882
1431660064.89 0 79.6198120117 30.1847743988 7.5038022995 2.75544810295
1431660064.9 0 80.344291687 30.4335632324 8.12461853027 2.96565508842
1431660064.92 0 81.0036239624 30.6532459259 8.73155879974 3.16305756569
1431660064.94 0 81.6051254272 30.8505153656 9.313829422 3.34788227081
1431660064.95 0 82.1601257324 31.0294895172 9.86886692047 3.51920199394
1431660064.97 0 82.6769180298 31.1931762695 10.394317627 3.67621779442
1431660064.98 0 83.1606750488 31.343460083 10.8878440857 3.81821846962
1431660065 0 83.6165237427 31.4821929932 11.3476419449 3.94471693039
1431660065.02 0 84.0543289185 31.6098251343 11.7824201584 4.0537276268
1431660065.03 0 84.4698181152 31.7281017303 12.1804676056 4.14685678482
1431660065.05 0 84.8647842407 31.837677002 12.5410432816 4.22414731979
1431660065.07 0 85.240776062 31.939125061 12.8638782501 4.28582334518
1431660065.08 0 85.6064376831 32.0324821472 13.1601228714 4.33039903641
1431660065.1 0 85.9607772827 32.1176300049 13.4296169281 4.35850191116
1431660065.11 0 86.2997207642 32.1962471008 13.6613588333 4.37270402908
1431660065.13 0 86.6229095459 32.2682952881 13.8564939499 4.37376737595
1431660065.15 0 86.9359741211 32.3328781128 14.0277910233 4.36071538925
1431660065.16 0 87.2343826294 32.3915519714 14.1648445129 4.33647012711
1431660065.18 0 87.5246505737 32.4436798096 14.2808485031 4.30009222031
1431660065.2 0 87.8032302856 32.4910621643 14.3654985428 4.25443029404
1431660065.21 0 88.0659408569 32.5326042175 14.4211511612 4.20062255859
1431660065.23 0 88.3159179688 32.5693359375 14.4500808716 4.13960981369
1431660065.25 0 88.5598526001 32.6006698608 14.465502739 4.07045650482
1431660065.26 0 88.7975158691 32.6267700195 14.4685821533 3.99422717094
1431660065.28 0 89.0294418335 32.6479988098 14.46048069 3.91191101074
1431660065.29 0 89.2565155029 32.6648025513 14.4422588348 3.82439827919
1431660065.31 0 89.4716033936 32.6779975891 14.4045791626 3.73438167572
1431660065.33 0 89.6811676025 32.6869506836 14.3599052429 3.64083218575
1431660065.34 0 89.8812332153 32.6932411194 14.2989597321 3.54612994194
1431660065.36 0 90.0771789551 32.6959342957 14.2336492538 3.44913220406
1431660065.38 0 90.2691421509 32.6952667236 14.1647157669 3.35048007965
1431660065.39 0 90.4576950073 32.6915664673 14.0928087234 3.25072646141
1431660065.41 0 90.6371841431 32.68592453 14.0091381073 3.15194559097
1431660065.42 0 90.8146209717 32.6777877808 13.9244375229 3.05282783508
1431660065.44 0 90.9841537476 32.6681556702 13.8300514221 2.95526623726
1431660065.46 0 91.1517181396 32.6562538147 13.736205101 2.8579621315
1431660065.47 0 91.3173904419 32.6422424316 13.6431808472 2.76122379303
1431660065.49 0 91.4807510376 32.6261978149 13.5512628555 2.6653470993
1431660065.51 0 91.6435546875 32.6085777283 13.4605550766 2.57050347328
1431660065.52 0 91.8047103882 32.589302063 13.3712282181 2.47689914703
1431660065.54 0 91.9586410522 32.5693244934 13.2754802704 2.38605093956
1431660065.55 0 92.112197876 32.5480537415 13.1820697784 2.29661822319
1431660065.57 0 92.2605056763 32.526512146 13.0832748413 2.20995855331
1431660065.59 0 92.4020233154 32.504447937 12.9800376892 2.12607908249
1431660065.6 0 92.5372924805 32.481967926 12.8732299805 2.04495859146
1431660065.62 0 92.6677246094 32.4592971802 12.7635164261 1.96652829647
1431660065.64 0 92.7936553955 32.4364814758 12.6514892578 1.89071452618
1431660065.65 0 92.9213562012 32.4128341675 12.5445203781 1.81625878811
1431660065.67 0 93.0444869995 32.3890838623 12.4355926514 1.74435031414
1431660065.68 0 93.1686630249 32.3644790649 12.3318195343 1.67380213737
1431660065.7 0 93.2941436768 32.3391265869 12.2328987122 1.60463726521
1431660065.72 0 93.4207611084 32.3130683899 12.1385602951 1.53687381744
1431660065.73 0 93.5482254028 32.2863349915 12.0485782623 1.47052919865
1431660065.75 0 93.6767196655 32.2590026855 11.9627094269 1.40560817719
1431660065.77 0 93.8008880615 32.2318725586 11.8747463226 1.34312415123
1431660065.78 0 93.9265975952 32.2042388916 11.790977478 1.28197586536
1431660065.8 0 94.0530548096 32.1760749817 11.7111692429 1.22217321396
1431660065.82 0 94.1805953979 32.1474647522 11.6350955963 1.1637070179
1431660065.83 0 94.3045425415 32.1192245483 11.5569677353 1.10748946667
1431660065.85 0 94.4294586182 32.090549469 11.4826211929 1.05251157284
1431660065.86 0 94.5554733276 32.0614967346 11.4118432999 0.9987616539
1431660065.88 0 94.6780090332 32.0328636169 11.3391466141 0.947100996971
1431660065.9 0 94.7971572876 32.0046272278 11.2648429871 0.897432386875
1431660065.91 0 94.9132537842 31.9767932892 11.189204216 0.849659740925
1431660065.93 0 95.0309066772 31.948595047 11.1174964905 0.802860796452
1431660065.95 0 95.1501083374 31.9200649261 11.0494842529 0.757025241852
1431660065.96 0 95.2662277222 31.8919620514 10.9801015854 0.712949693203
1431660065.98 0 95.3796234131 31.8642845154 10.909570694 0.670547306538
1431660065.99 0 95.494682312 31.8362751007 10.8428058624 0.628958284855
1431660066.01 0 95.6114196777 31.8079662323 10.7795801163 0.58817499876
1431660066.03 0 95.7296447754 31.7793712616 10.7196903229 0.548189997673
1431660066.04 0 95.8449630737 31.7512340546 10.6584529877 0.509740769863
1431660066.06 0 95.9571075439 31.7235240936 10.5960922241 0.472760558128
1431660066.08 0 96.0712966919 31.6955528259 10.5371189117 0.436451464891
1431660066.09 0 96.1831588745 31.6680374146 10.4770412445 0.401514589787
1431660066.11 0 96.2967681885 31.6402435303 10.4202671051 0.367180883884
1431660066.12 0 96.4118347168 31.6121902466 10.366604805 0.333450466394
1431660066.14 0 96.5245819092 31.584602356 10.311750412 0.300997823477
1431660066.16 0 96.6394500732 31.55676651 10.2599287033 0.269079238176
1431660066.17 0 96.7559356689 31.5286903381 10.2109537125 0.237694084644
1431660066.19 0 96.8739547729 31.5003890991 10.1646661758 0.206838563085
1431660066.21 0 96.9935531616 31.4718799591 10.1209173203 0.176505967975
1431660066.22 0 97.1097412109 31.4438514709 10.0757217407 0.14734312892
1431660066.24 0 97.2274932861 31.4156246185 10.0330505371 0.118660479784
1431660066.25 0 97.3471984863 31.3872127533 9.99275302887 0.0904467329383
1431660066.27 0 97.4684448242 31.3586215973 9.95468616486 0.0626966133714
1431660066.29 0 97.5911483765 31.329864502 9.91872501373 0.0354040041566
1431660066.3 0 97.71484375 31.300951004 9.88475894928 0.00856739096344
1431660066.32 0 97.8399276733 31.2718963623 9.8526725769 -0.0178203266114
1431660066.34 0 97.9663238525 31.2427043915 9.82237243652 -0.0437685213983
1431660066.35 0 98.0942840576 31.2133808136 9.79374504089 -0.0692868232727
1431660066.37 0 98.2228851318 31.1839447021 9.76670265198 -0.0943747982383
1431660066.38 0 98.3308944702 31.1567192078 9.72227096558 -0.117000922561
1431660066.4 0 98.4276275635 31.1315994263 9.66820526123 -0.137316346169
1431660066.42 0 98.5156784058 31.1080055237 9.60785961151 -0.155897334218
1431660066.43 0 98.5955200195 31.0858726501 9.54172134399 -0.172844871879
1431660066.45 0 98.6647720337 31.0656375885 9.46763801575 -0.187824860215
1431660066.47 0 98.7236251831 31.0472221375 9.38621711731 -0.200956642628
1431660066.48 0 98.7724533081 31.0305576324 9.29803085327 -0.212351679802
1431660066.5 0 98.8125915527 31.0155487061 9.20353412628 -0.222114279866
1431660066.51 0 98.8461303711 31.001663208 9.1057510376 -0.230756729841
1431660066.53 0 98.8710021973 30.9893341064 9.00249195099 -0.237933456898
1431660066.55 0 98.890586853 30.9780063629 8.89663410187 -0.244140282273
1431660066.56 0 98.9049682617 30.9676437378 8.78842544556 -0.249434113503
1431660066.58 0 98.9118041992 30.9586849213 8.67563438416 -0.25346404314
1431660066.6 0 98.9106674194 30.9510936737 8.55868244171 -0.256308943033
1431660066.61 0 98.9026565552 30.9447937012 8.43786811829 -0.258037388325
1431660066.63 0 98.8907699585 30.9392547607 8.3158788681 -0.259111136198
1431660066.65 0 98.8718032837 30.9349441528 8.19055080414 -0.259179294109
1431660066.66 0 98.8462677002 30.931804657 8.06218719482 -0.258303523064
1431660066.68 0 98.8143234253 30.9297924042 7.93108844757 -0.256542861462
1431660066.69 0 98.7796478271 30.9283695221 7.79978752136 -0.254333406687
1431660066.71 0 98.7421875 30.9275150299 7.66837930679 -0.251703470945
1431660066.73 0 98.7014007568 30.9272289276 7.53701114655 -0.248681589961
1431660066.74 0 98.6552505493 30.927942276 7.40349340439 -0.244916215539
1431660066.76 0 98.6041641235 30.9296092987 7.26800584793 -0.240451321006
1431660066.78 0 98.5476989746 30.9322128296 7.13080310822 -0.235334798694
1431660066.79 0 98.4863052368 30.9357070923 6.99207448959 -0.229606240988
1431660066.81 0 98.4206085205 30.9400444031 6.8519692421 -0.223303347826
1431660066.82 0 98.3502655029 30.9452114105 6.71067667007 -0.216463729739
1431660066.84 0 98.2756652832 30.9511642456 6.56836795807 -0.209123939276
1431660066.86 0 98.1995925903 30.9574108124 6.42739582062 -0.201679974794
1431660066.87 0 98.1196136475 30.9643955231 6.28560876846 -0.193783029914
1431660066.89 0 98.036781311 30.9720687866 6.14301586151 -0.185454025865
1431660066.91 0 97.9498214722 30.9804420471 5.99980401993 -0.176725715399
1431660066.92 0 97.8622436523 30.9890079498 5.85823154449 -0.167981207371
1431660066.94 0 97.7740020752 30.9977588654 5.71829462051 -0.159226596355
1431660066.95 0 97.6851348877 31.0066890717 5.57999038696 -0.150467798114
1431660066.97 0 97.5956954956 31.015789032 5.44331455231 -0.141710430384
1431660066.99 0 97.5057601929 31.0250511169 5.30825519562 -0.132959201932
1431660067 0 97.4154129028 31.0344657898 5.17479610443 -0.124218210578
1431660067.02 0 97.3246612549 31.0440311432 5.04291772842 -0.115490958095
1431660067.04 0 97.233291626 31.0537414551 4.91263818741 -0.106783509254
1431660067.05 0 97.1415939331 31.0635871887 4.78394365311 -0.0980998650193
1431660067.07 0 97.0494155884 31.0735626221 4.65684556961 -0.0894452854991
1431660067.08 0 96.9568099976 31.0836620331 4.53134489059 -0.0808237493038
1431660067.1 0 96.8640213013 31.0938739777 4.40742063522 -0.0722379013896
1431660067.12 0 96.7683029175 31.1046543121 4.28300523758 -0.0633501261473
1431660067.13 0 96.6698226929 31.1159801483 4.15816831589 -0.0541786178946
1431660067.15 0 96.5685195923 31.1278343201 4.03301095963 -0.0447439812124
1431660067.17 0 96.4644470215 31.1401939392 3.90764093399 -0.0350667759776
1431660067.18 0 96.3579788208 31.1530399323 3.78211522102 -0.0251626595855
1431660067.2 0 96.2490921021 31.1663513184 3.65651512146 -0.015049399808
1431660067.21 0 96.1406478882 31.1796588898 3.53291988373 -0.00507687451318
1431660067.23 0 96.0326004028 31.1929607391 3.41129899025 0.00475646415725
1431660067.25 0 95.922164917 31.2067089081 3.2896296978 0.014783908613
1431660067.26 0 95.8096313477 31.2208862305 3.16795349121 0.0249929912388
1431660067.28 0 95.6949996948 31.2354793549 3.04633021355 0.0353696495295
1431660067.3 0 95.5811004639 31.2500190735 2.92681074142 0.0455690175295
1431660067.31 0 95.4677734375 31.2644996643 2.80937862396 0.0555925518274
1431660067.33 0 95.3524017334 31.2793769836 2.69200849533 0.0657734274864
1431660067.34 0 95.2351226807 31.2946376801 2.57474684715 0.0760997384787
1431660067.36 0 95.1186752319 31.3098125458 2.45963859558 0.0862292945385
1431660067.38 0 95.0030059814 31.3248996735 2.3466527462 0.0961653217673
1431660067.39 0 94.8882522583 31.3399066925 2.23573303223 0.105912990868
1431660067.41 0 94.771522522 31.3552761078 2.1248960495 0.115800566971
1431660067.43 0 94.6558227539 31.370557785 2.0161242485 0.125493422151
1431660067.44 0 94.5409164429 31.3857402802 1.90939962864 0.134993746877
1431660067.46 0 94.4269485474 31.4008312225 1.80467021465 0.144306331873
1431660067.47 0 94.3110275269 31.4162693024 1.69997954369 0.153756394982
1431660067.49 0 94.1960754395 31.431596756 1.59732592106 0.163009405136
1431660067.51 0 94.0820999146 31.4468231201 1.49665701389 0.172070726752
1431660067.52 0 93.9691238403 31.4619598389 1.39790797234 0.180946618319
1431660067.54 0 93.8543548584 31.4774494171 1.29909396172 0.189964011312
1431660067.56 0 93.7406158447 31.4928436279 1.20217812061 0.198792085052
1431660067.57 0 93.6278076172 31.5081367493 1.10711765289 0.207435324788
1431660067.59 0 93.5131454468 31.5237560272 1.01197421551 0.216216221452
1431660067.61 0 93.3995132446 31.5392665863 0.918713748455 0.224804669619
1431660067.62 0 93.2841644287 31.5551204681 0.825350165367 0.233527705073
1431660067.64 0 93.1698379517 31.5708446503 0.733878850937 0.242052480578
1431660067.65 0 93.0538253784 31.5868911743 0.642328619957 0.250704497099
1431660067.67 0 92.9389190674 31.6028137207 0.552667737007 0.25915363431
1431660067.69 0 92.8250427246 31.6185703278 0.464894860983 0.267401814461
1431660067.7 0 92.7122497559 31.6342105865 0.378948003054 0.27545568347
1431660067.72 0 92.6004867554 31.6497116089 0.294799506664 0.283319175243
1431660067.74 0 92.4897460938 31.6650886536 0.21240542829 0.290997445583
1431660067.75 0 92.3773117065 31.6807937622 0.129806652665 0.29881387949
1431660067.77 0 92.2632446289 31.6968288422 0.0470343455672 0.306760162115
1431660067.78 0 92.1476135254 31.7131538391 -0.0358434915543 0.314824283123
1431660067.8 0 92.033203125 31.72930336 -0.116849817336 0.322677463293
1431660067.82 0 91.9199905396 31.7452869415 -0.196023404598 0.330325126648
1431660067.83 0 91.8079528809 31.7611179352 -0.273408859968 0.337772935629
1431660067.85 0 91.6970367432 31.7768115997 -0.349058419466 0.345027178526
1431660067.87 0 91.5845184326 31.7928276062 -0.424933195114 0.352410644293
1431660067.88 0 91.4731674194 31.808681488 -0.499071806669 0.359596639872
1431660067.9 0 91.3602218628 31.8248558044 -0.573441147804 0.366908997297
1431660067.91 0 91.2485122681 31.8408470154 -0.64607000351 0.374020189047
1431660067.93 0 91.1379776001 31.8566837311 -0.717000484467 0.380935549736
1431660067.95 0 91.0259017944 31.8728122711 -0.788171887398 0.387975752354
1431660067.96 0 90.912361145 31.8892230988 -0.859537363052 0.395131707191
1431660067.98 0 90.797416687 31.9059047699 -0.93105173111 0.402394235134
1431660068 0 90.6811218262 31.9228458405 -1.00267267227 0.409755080938
1431660068.01 0 90.5635299683 31.9400424957 -1.07436060905 0.417206019163
1431660068.03 0 90.4473876953 31.95703125 -1.14418196678 0.424424856901
1431660068.04 0 90.3326416016 31.97382164 -1.21218574047 0.431418329477
1431660068.06 0 90.2192764282 31.9904174805 -1.27841889858 0.438193112612
1431660068.08 0 90.1045684814 32.0072746277 -1.34481883049 0.44506958127
1431660068.09 0 89.991317749 32.0239105225 -1.40944468975 0.45172482729
1431660068.11 0 89.87940979 32.0403633118 -1.47235131264 0.458166480064
1431660068.13 0 89.7688140869 32.0566291809 -1.53358304501 0.464400589466
1431660068.14 0 89.6596069336 32.0726852417 -1.59317541122 0.470432907343
1431660068.16 0 89.5515441895 32.0886001587 -1.65118515491 0.476270496845
1431660068.17 0 89.4447097778 32.1043434143 -1.70765674114 0.481919467449
1431660068.19 0 89.3361282349 32.1204338074 -1.76454877853 0.48770186305
1431660068.21 0 89.2262420654 32.1367492676 -1.82179093361 0.493606358767
1431660068.22 0 89.1176605225 32.1528816223 -1.87744987011 0.499310880899
1431660068.24 0 89.0077056885 32.1692695618 -1.93344986439 0.505134344101
1431660068.26 0 88.8964004517 32.1859092712 -1.98974657059 0.511068224907
1431660068.27 0 88.786491394 32.2023429871 -2.04441261292 0.516791641712
1431660068.29 0 88.6779708862 32.2185745239 -2.09749054909 0.522310853004
1431660068.31 0 88.5707321167 32.2346229553 -2.1490278244 0.527632474899
1431660068.32 0 88.4621124268 32.2509269714 -2.20094418526 0.533074617386
1431660068.34 0 88.352142334 32.2674865723 -2.25319933891 0.538629472256
1431660068.35 0 88.2435531616 32.2838439941 -2.30387306213 0.543977022171
1431660068.37 0 88.1363983154 32.2999839783 -2.35300588608 0.549123704433
1431660068.39 0 88.027961731 32.3163604736 -2.40251064301 0.554386377335
1431660068.4 0 87.9180908203 32.3330116272 -2.45236110687 0.559759199619
1431660068.42 0 87.8070755005 32.3498725891 -2.50250577927 0.565233051777
1431660068.44 0 87.6949920654 32.3669281006 -2.55289936066 0.570800304413
1431660068.45 0 87.5815887451 32.3842391968 -2.60352063179 0.576455593109
1431660068.47 0 87.4670944214 32.4017524719 -2.65433239937 0.582191824913
1431660068.48 0 87.3542938232 32.4190063477 -2.70342254639 0.587691128254
1431660068.5 0 87.2404632568 32.4364547729 -2.75271201134 0.593271911144
1431660068.52 0 87.1281814575 32.4536743164 -2.80030035973 0.598617315292
1431660068.53 0 87.0174789429 32.4706535339 -2.84623622894 0.603734612465
1431660068.55 0 86.9056091309 32.4878501892 -2.89244627953 0.60894292593
1431660068.57 0 86.7922897339 32.5053253174 -2.93891644478 0.614237844944
1431660068.58 0 86.680770874 32.522518158 -2.98372364044 0.61930000782
1431660068.6 0 86.5706481934 32.5395050049 -3.02692532539 0.624137639999
1431660068.61 0 86.4621200562 32.5562438965 -3.06856703758 0.628758132458
1431660068.63 0 86.3551330566 32.5727462769 -3.1086935997 0.633168280125
1431660068.65 0 86.2495880127 32.5890274048 -3.14735126495 0.637375235558
1431660068.66 0 86.1454315186 32.6051025391 -3.18458580971 0.641385793686
1431660068.68 0 86.0399627686 32.6214141846 -3.22231388092 0.645517706871
1431660068.7 0 85.9332504272 32.6379508972 -3.26049375534 0.649763286114
1431660068.71 0 85.8252639771 32.6547241211 -3.29908871651 0.65411567688
1431660068.73 0 85.7160797119 32.6717147827 -3.33806061745 0.658567905426
1431660068.74 0 85.6059646606 32.688873291 -3.37736153603 0.663111805916
1431660068.76 0 85.4974136353 32.7057914734 -3.41509628296 0.66743183136
1431660068.78 0 85.3902587891 32.7224998474 -3.45131587982 0.671535551548
1431660068.79 0 85.2819366455 32.7394180298 -3.48794102669 0.675741434097
1431660068.81 0 85.1751785278 32.7560958862 -3.52306175232 0.679731845856
1431660068.83 0 85.0699081421 32.7725486755 -3.55672764778 0.683514177799
1431660068.84 0 84.9660949707 32.7887763977 -3.5889852047 0.687095522881
1431660068.86 0 84.8637313843 32.804775238 -3.6198797226 0.690483033657
1431660068.87 0 84.7598495483 32.8210487366 -3.65134215355 0.693996548653
1431660068.89 0 84.6573867798 32.8371047974 -3.68144893646 0.697315990925
1431660068.91 0 84.5537567139 32.8533668518 -3.71211194992 0.700758695602
1431660068.92 0 84.4490585327 32.8698196411 -3.74329257011 0.704317927361
1431660068.94 0 84.3430404663 32.8865089417 -3.77495384216 0.707986831665
1431660068.96 0 84.2382583618 32.9030189514 -3.80518984795 0.711447775364
1431660068.97 0 84.1350708008 32.9192733765 -3.83404564857 0.714708089828
1431660068.99 0 84.030708313 32.9357376099 -3.86344075203 0.718086183071
1431660069 0 83.9278259277 32.9519729614 -3.89146184921 0.721263647079
1431660069.02 0 83.8263549805 32.9679870605 -3.91815543175 0.724247813225
1431660069.04 0 83.7261505127 32.9838066101 -3.94356632233 0.727045595646
1431660069.05 0 83.6273040771 32.9994125366 -3.96773791313 0.729663729668
1431660069.07 0 83.5297241211 33.0148277283 -3.99071216583 0.732108652592
1431660069.09 0 83.4310302734 33.0304336548 -4.01440382004 0.734698355198
1431660069.1 0 83.3335723877 33.0458488464 -4.03689861298 0.737114369869
1431660069.12 0 83.2348175049 33.0614929199 -4.060110569 0.739674210548
1431660069.14 0 83.1346511841 33.0773887634 -4.08399629593 0.742370247841
1431660069.15 0 83.0331497192 33.0935173035 -4.10850858688 0.745193898678
1431660069.17 0 82.9332351685 33.1093940735 -4.13173770905 0.74782794714
1431660069.18 0 82.832244873 33.1254577637 -4.15559530258 0.750589668751
1431660069.2 0 82.7300338745 33.1417388916 -4.18004131317 0.753472030163
1431660069.22 0 82.6293487549 33.1577758789 -4.20317029953 0.756158053875
1431660069.23 0 82.527130127 33.1740837097 -4.22690820694 0.758967101574
